<svg width="44" height="51" viewBox="0 0 44 51" fill="none" xmlns="http://www.w3.org/2000/svg">
<path d="M41.3533 0.00500488H7.72423C6.51777 0.00500488 5.54041 0.982374 5.54041 2.18883V47.8212C5.54041 49.027 6.51777 50.005 7.72423 50.005H41.3533C42.5592 50.005 43.5372 49.027 43.5372 47.8212V2.18883C43.5372 0.982444 42.5592 0.00500488 41.3533 0.00500488ZM41.3533 47.8212H7.72423V2.18883H41.3533V47.8212Z" fill="#03A9F4"/>
<path d="M14.7389 29.3596C14.7389 29.3596 14.7389 29.3603 14.7395 29.3603C17.2706 32.0621 20.8419 33.6116 24.5382 33.6116C24.543 33.6116 24.548 33.6116 24.5528 33.6116C24.554 33.6116 24.5552 33.6116 24.5565 33.6116C24.5589 33.6116 24.5608 33.6109 24.5633 33.6109C28.2496 33.6042 31.8112 32.056 34.3369 29.3603C36.678 26.862 37.968 23.6027 37.968 20.1831C37.968 16.7641 36.6786 13.5048 34.3369 11.006C31.8058 8.30419 28.2337 6.75458 24.5383 6.75458C20.842 6.75458 17.2701 8.30412 14.7396 11.006C14.7389 11.0066 14.7389 11.0066 14.7389 11.0066C12.3991 13.5029 11.1104 16.7617 11.1104 20.1831C11.1103 23.6045 12.399 26.8638 14.7389 29.3596ZM21.9656 13.6816C22.0028 13.5389 22.0418 13.4037 22.0801 13.269C22.099 13.2026 22.1179 13.1331 22.1374 13.0691C22.1843 12.9113 22.2331 12.7626 22.2824 12.6164C22.294 12.5817 22.3049 12.5439 22.3165 12.5098C22.3782 12.3312 22.4409 12.1606 22.5042 11.9991C22.517 11.9668 22.5305 11.9382 22.5432 11.9065C22.5937 11.781 22.6443 11.658 22.6955 11.5434C22.718 11.4922 22.7411 11.4459 22.7644 11.3965C22.8058 11.3075 22.8479 11.2186 22.89 11.1357C22.9161 11.0839 22.9423 11.037 22.9685 10.9876C23.0075 10.9151 23.0459 10.8426 23.0848 10.7756C23.1123 10.728 23.1405 10.6835 23.1679 10.6385C23.2049 10.5776 23.2427 10.5172 23.2799 10.4612C23.3078 10.4186 23.336 10.3789 23.3641 10.3393C23.4005 10.2875 23.4365 10.2376 23.4725 10.1906C23.5005 10.1547 23.5279 10.1199 23.5553 10.0865C23.5912 10.0426 23.6266 10.0018 23.6619 9.96218C23.6887 9.93295 23.7155 9.90373 23.7417 9.87692C23.7764 9.84098 23.8112 9.80809 23.8453 9.77637C23.8709 9.75331 23.8964 9.72948 23.9215 9.70871C23.9556 9.68011 23.9891 9.65518 24.022 9.6308C24.0458 9.61376 24.0696 9.59541 24.0927 9.58018C24.1262 9.55822 24.1585 9.54063 24.1914 9.52353C24.2121 9.51251 24.2329 9.49922 24.2531 9.49001C24.2883 9.47415 24.3212 9.4639 24.3547 9.45289C24.3706 9.44797 24.387 9.44063 24.4023 9.43703C24.45 9.42539 24.4955 9.41868 24.5383 9.41868C24.5809 9.41868 24.626 9.42539 24.6735 9.43703C24.6894 9.44063 24.707 9.44859 24.7234 9.45407C24.7558 9.46383 24.7887 9.47415 24.8228 9.49001C24.8435 9.49977 24.8655 9.51252 24.8868 9.52422C24.9185 9.54126 24.9502 9.55829 24.9837 9.57962C25.0068 9.59548 25.0318 9.61439 25.0556 9.63205C25.0885 9.6558 25.1207 9.68018 25.1543 9.70822C25.1799 9.72955 25.2061 9.75393 25.2324 9.77831C25.2658 9.80878 25.2994 9.84105 25.3334 9.87582C25.3608 9.9038 25.3889 9.93427 25.4162 9.96474C25.4505 10.0025 25.4845 10.0422 25.5192 10.0842C25.5478 10.119 25.5766 10.1549 25.6058 10.1926C25.6405 10.2384 25.6753 10.2864 25.7106 10.3365C25.7399 10.3779 25.7692 10.4193 25.7983 10.4632C25.8344 10.5174 25.8703 10.5753 25.9062 10.6345C25.9348 10.6814 25.9642 10.7283 25.9928 10.7783C26.03 10.8422 26.0665 10.9112 26.1037 10.9801C26.1318 11.0324 26.1604 11.0837 26.1884 11.1391C26.2274 11.2165 26.2664 11.2999 26.3053 11.3828C26.3309 11.4371 26.3566 11.4889 26.3822 11.5461C26.4285 11.6497 26.4741 11.7612 26.5199 11.8734C26.5375 11.9172 26.5557 11.9574 26.5735 12.0025C26.6355 12.1622 26.6977 12.3304 26.7587 12.507C26.7746 12.5527 26.7897 12.6039 26.805 12.6509C26.85 12.7856 26.8947 12.9214 26.9379 13.0659C26.9591 13.1365 26.9798 13.2133 27.0006 13.2864C27.0372 13.4144 27.0744 13.543 27.1096 13.6789C27.1315 13.7629 27.1523 13.8519 27.1737 13.9384C27.1974 14.0352 27.2213 14.1341 27.2444 14.2339C26.9749 14.301 26.7032 14.3564 26.4308 14.4027C26.3773 14.4119 26.3243 14.4192 26.2706 14.4271C26.0329 14.4643 25.7935 14.4935 25.5541 14.5154C25.5022 14.5203 25.4505 14.5257 25.3987 14.5294C24.8259 14.5733 24.25 14.5733 23.6773 14.5294C23.6268 14.5257 23.5761 14.5203 23.5256 14.5154C23.2844 14.4941 23.043 14.4643 22.803 14.4271C22.7517 14.4185 22.7 14.4119 22.6481 14.4033C22.3746 14.3564 22.1021 14.301 21.8316 14.2339C21.856 14.1303 21.8798 14.0286 21.9048 13.9292C21.9248 13.8467 21.9449 13.7613 21.9656 13.6816ZM27.2102 26.7645C27.1753 26.9089 27.1388 27.0466 27.1023 27.1837C27.0833 27.2562 27.0651 27.3324 27.0449 27.4031C26.9884 27.6072 26.9298 27.804 26.8701 27.9923C26.8646 28.01 26.8585 28.0257 26.8524 28.0435C26.7976 28.2134 26.7422 28.3774 26.6848 28.534C26.6635 28.5924 26.6415 28.6461 26.6197 28.7028C26.5776 28.8138 26.5357 28.924 26.493 29.0276C26.4673 29.0891 26.4417 29.1458 26.4156 29.2049C26.3759 29.2963 26.3363 29.3877 26.2956 29.4736C26.2682 29.5315 26.2408 29.5857 26.2134 29.6411C26.1742 29.7204 26.1346 29.7984 26.0957 29.8716C26.0671 29.9252 26.0384 29.9751 26.0097 30.0256C25.9713 30.094 25.933 30.1603 25.894 30.2231C25.8654 30.2707 25.8361 30.3157 25.8075 30.3602C25.7691 30.4186 25.7307 30.4754 25.6929 30.529C25.6643 30.5698 25.6358 30.6088 25.607 30.6466C25.5692 30.6966 25.5314 30.7441 25.4944 30.7892C25.4656 30.8227 25.4376 30.857 25.4096 30.8879C25.3724 30.9294 25.336 30.9672 25.2993 31.0037C25.2719 31.0312 25.2445 31.0592 25.2176 31.0835C25.1811 31.117 25.1452 31.1457 25.1097 31.1743C25.0841 31.1951 25.058 31.217 25.0324 31.2347C24.9964 31.2609 24.9611 31.281 24.9257 31.3017C24.9026 31.3151 24.8795 31.331 24.857 31.342C24.8185 31.3608 24.7813 31.3736 24.7448 31.3865C24.7271 31.3926 24.7088 31.4018 24.6912 31.4059C24.6381 31.4205 24.5869 31.4278 24.5383 31.4278C24.4895 31.4278 24.4378 31.4205 24.3847 31.4059C24.3671 31.4017 24.3486 31.3926 24.3311 31.3865C24.2939 31.3736 24.2574 31.3608 24.219 31.342C24.1964 31.331 24.1733 31.3151 24.1502 31.3017C24.1147 31.281 24.0795 31.2609 24.0428 31.2347C24.018 31.217 23.9917 31.1944 23.9655 31.1738C23.9301 31.1457 23.8948 31.1171 23.8582 31.0835C23.8308 31.0592 23.8033 31.0305 23.7754 31.0031C23.7394 30.9671 23.7035 30.9294 23.6669 30.8886C23.6383 30.857 23.6091 30.8221 23.5804 30.7874C23.544 30.7436 23.5068 30.6972 23.4701 30.6485C23.4403 30.6094 23.4104 30.5693 23.3812 30.5272C23.3441 30.4748 23.3074 30.42 23.2702 30.3633C23.2404 30.317 23.2099 30.2701 23.1794 30.2207C23.1423 30.1598 23.1051 30.0958 23.0679 30.03C23.0381 29.9775 23.0082 29.9252 22.979 29.8698C22.9406 29.7985 22.9028 29.7229 22.865 29.6461C22.8364 29.5889 22.8071 29.5321 22.7791 29.4718C22.7401 29.389 22.7017 29.3006 22.6634 29.2123C22.6359 29.1501 22.6091 29.0904 22.5823 29.0258C22.5409 28.9259 22.5 28.8186 22.4598 28.7127C22.4366 28.6523 22.4134 28.5957 22.3909 28.5335C22.3337 28.3762 22.2776 28.2105 22.2221 28.0399C22.2166 28.0235 22.2111 28.0095 22.2062 27.993C22.1459 27.8041 22.0874 27.6061 22.0301 27.4007C22.0137 27.3404 21.9985 27.2757 21.982 27.2143C21.9424 27.0656 21.9028 26.9163 21.8656 26.7592C21.8461 26.6781 21.8278 26.5921 21.809 26.5094C21.7834 26.3935 21.7572 26.2766 21.7323 26.1572C22.0174 26.0835 22.3055 26.0243 22.5951 25.9737C22.6553 25.9628 22.7163 25.9542 22.7767 25.9446C23.0136 25.9074 23.2525 25.8774 23.4914 25.8549C23.5479 25.8495 23.6047 25.8433 23.6613 25.8391C24.2445 25.7934 24.8313 25.7934 25.415 25.8391C25.471 25.8433 25.5272 25.8494 25.5832 25.8549C25.8221 25.8769 26.0602 25.9067 26.2974 25.9446C26.3594 25.9542 26.4211 25.9628 26.4826 25.9737C26.7721 26.0243 27.0597 26.0841 27.3447 26.1572C27.3222 26.2655 27.2985 26.3716 27.2747 26.4764C27.2533 26.5725 27.2327 26.6713 27.2102 26.7645ZM22.5103 16.5911C22.759 16.6288 23.0081 16.6599 23.2586 16.6837C23.3652 16.6939 23.4712 16.7038 23.5785 16.7117C23.8619 16.7317 24.1464 16.744 24.4309 16.7464C24.467 16.747 24.5023 16.7506 24.5383 16.7506C24.5736 16.7506 24.6083 16.747 24.6436 16.7464C24.9283 16.7446 25.2129 16.7317 25.4967 16.7117C25.6052 16.7038 25.7131 16.6934 25.821 16.683C26.0672 16.6599 26.3133 16.6288 26.5582 16.5916C26.6374 16.5794 26.7166 16.5703 26.7951 16.5569C27.0767 16.5094 27.3577 16.454 27.6356 16.3881C27.6562 16.5393 27.6709 16.6952 27.6891 16.8488C27.7165 17.0773 27.7458 17.3045 27.7677 17.5379C27.7836 17.7079 27.7934 17.8822 27.8062 18.0534C27.8238 18.2874 27.8434 18.5195 27.8561 18.7572C27.8567 18.7767 27.8574 18.7967 27.8578 18.8163H21.2192C21.2205 18.7949 21.2205 18.7724 21.2217 18.7511C21.2332 18.5275 21.2521 18.3087 21.2686 18.0881C21.282 17.9047 21.2924 17.7189 21.3095 17.5379C21.3308 17.3137 21.3588 17.0949 21.3844 16.875C21.4039 16.7129 21.4197 16.5484 21.441 16.3881C21.7201 16.4545 22.0017 16.51 22.2844 16.5575C22.3598 16.5709 22.4353 16.5795 22.5103 16.5911ZM26.7391 23.8013C26.4009 23.7452 26.0609 23.7038 25.719 23.6733C25.6842 23.6703 25.6495 23.6666 25.6149 23.6642C25.2571 23.6355 24.8982 23.6154 24.5381 23.6154C24.1774 23.6154 23.8184 23.6355 23.4607 23.6642C23.4254 23.6672 23.3907 23.6703 23.3559 23.6733C23.0147 23.7037 22.6759 23.7452 22.3389 23.8013C22.3206 23.8037 22.303 23.8062 22.2854 23.8092C21.9825 23.861 21.6809 23.9195 21.3817 23.992C21.3737 23.925 21.3689 23.855 21.3616 23.7873C21.3208 23.4205 21.2854 23.05 21.2586 22.674C21.2477 22.5211 21.2404 22.3651 21.2312 22.2104C21.2136 21.8966 21.2001 21.5803 21.1916 21.2617C21.1892 21.1745 21.1879 21.0873 21.1867 21.0002H27.8899C27.8887 21.0873 27.8875 21.1739 27.8851 21.2603C27.8772 21.5803 27.8632 21.8971 27.8455 22.2122C27.8371 22.3645 27.8297 22.5174 27.8186 22.6685C27.7907 23.0549 27.7553 23.4363 27.7127 23.8134C27.706 23.8726 27.7024 23.9334 27.6951 23.992C27.3952 23.9195 27.0924 23.8604 26.7889 23.8086C26.7726 23.8062 26.7555 23.8044 26.7391 23.8013ZM18.9969 21.0002C18.9981 21.0837 19.006 21.1641 19.0078 21.247C19.0188 21.7241 19.0396 22.1957 19.0706 22.6619C19.0772 22.757 19.0803 22.8538 19.0876 22.9489C19.129 23.4942 19.1858 24.0293 19.254 24.5569C19.2594 24.602 19.2619 24.6495 19.268 24.6947C19.2235 24.7141 19.1815 24.738 19.1369 24.7574C18.8926 24.8652 18.6513 24.9798 18.4137 25.1022C18.3266 25.1468 18.2406 25.1932 18.1541 25.24C17.9292 25.3619 17.7081 25.4904 17.4905 25.6245C17.4265 25.6647 17.3607 25.7019 17.2973 25.7427C17.0231 25.9182 16.7556 26.1034 16.4954 26.2983C16.4393 26.3404 16.3857 26.3855 16.3302 26.4281C16.1243 26.5872 15.9226 26.7523 15.7264 26.9235C15.6887 26.9559 15.6484 26.9845 15.6113 27.0173C14.275 25.2777 13.4816 23.1937 13.3232 21.0002H18.9969V21.0002ZM17.1055 28.6181C17.1366 28.5906 17.167 28.5627 17.1987 28.5352C17.3133 28.4365 17.4309 28.3408 17.5491 28.2471C17.6222 28.1891 17.6941 28.1301 17.7684 28.0739C17.897 27.9771 18.0292 27.8845 18.1621 27.7931C18.2296 27.7461 18.2955 27.6974 18.3643 27.6523C18.5447 27.5335 18.7287 27.4207 18.9152 27.3124C18.9383 27.2989 18.9603 27.2843 18.9834 27.2708C19.1942 27.1508 19.4087 27.0387 19.6268 26.9327C19.6372 26.9272 19.6488 26.9229 19.6597 26.9174C19.6713 26.9698 19.6853 27.0162 19.6969 27.0679C19.7615 27.3507 19.8304 27.6255 19.9029 27.8924C19.9217 27.9618 19.9394 28.0343 19.9589 28.1032C20.0503 28.4268 20.1472 28.7368 20.2495 29.0342C20.2739 29.1049 20.3001 29.1702 20.3251 29.239C20.4068 29.4675 20.4921 29.6874 20.5804 29.8995C20.6152 29.9817 20.6499 30.0633 20.6852 30.1438C20.7834 30.3655 20.8851 30.5777 20.9905 30.7799C21.0063 30.811 21.021 30.847 21.0368 30.8768C19.5959 30.4076 18.2633 29.6447 17.1055 28.6181ZM28.0876 30.7739C28.1912 30.5741 28.2916 30.3644 28.3891 30.1451C28.425 30.064 28.4599 29.9812 28.4951 29.8983C28.5822 29.6881 28.6669 29.4706 28.7486 29.2446C28.7743 29.1733 28.8009 29.1051 28.8265 29.0319C28.9284 28.737 29.0247 28.4294 29.1154 28.1094C29.1373 28.032 29.1574 27.9504 29.1788 27.8712C29.2476 27.6158 29.3141 27.3539 29.3763 27.084C29.389 27.0267 29.4048 26.9755 29.4178 26.9176C29.4287 26.9231 29.4396 26.9274 29.4507 26.9329C29.6675 27.0383 29.8821 27.1509 30.0922 27.2704C30.1191 27.2857 30.1447 27.3027 30.171 27.3186C30.3536 27.4246 30.5347 27.5354 30.7114 27.6519C30.7815 27.6982 30.8491 27.7482 30.9186 27.7957C31.049 27.8859 31.1794 27.9766 31.3061 28.073C31.3823 28.1302 31.4567 28.1906 31.5316 28.2503C31.6474 28.3423 31.7625 28.4361 31.8747 28.5324C31.9069 28.5604 31.9386 28.5896 31.9709 28.6183C30.8127 29.645 29.4793 30.4078 28.0376 30.8777C28.0553 30.8452 28.0704 30.8067 28.0876 30.7739ZM33.4648 27.0174C33.427 26.9839 33.3856 26.9546 33.3479 26.9217C33.1529 26.7517 32.953 26.5884 32.749 26.4306C32.6916 26.3867 32.6368 26.3404 32.5796 26.2971C32.32 26.1027 32.0531 25.9181 31.7795 25.7426C31.7155 25.7011 31.6485 25.6633 31.5833 25.6232C31.367 25.4891 31.1476 25.3618 30.9239 25.2405C30.8368 25.193 30.7492 25.1461 30.6608 25.101C30.4262 24.9803 30.1886 24.867 29.9478 24.7609C29.9008 24.7403 29.8564 24.7147 29.8088 24.6946C29.8151 24.6489 29.8174 24.6008 29.8235 24.5544C29.8918 24.0268 29.9478 23.4917 29.9893 22.9477C29.9966 22.8502 30.0003 22.7508 30.0063 22.6527C30.0373 22.1896 30.0581 21.7211 30.0696 21.2483C30.0716 21.1648 30.0789 21.0844 30.0806 21.0003H35.7541C35.5957 23.1926 34.8018 25.2758 33.4648 27.0174ZM30.0465 18.8163C30.0442 18.764 30.0379 18.714 30.0356 18.6622C30.0124 18.2137 29.9813 17.7701 29.9399 17.3332C29.9363 17.2948 29.9344 17.2546 29.9308 17.2162C29.885 16.7428 29.826 16.2791 29.7589 15.8215C29.7534 15.7812 29.7505 15.7392 29.7444 15.699C29.7924 15.6789 29.8376 15.6533 29.8858 15.632C30.13 15.526 30.3714 15.412 30.6095 15.2913C30.6992 15.2457 30.7881 15.1988 30.877 15.1512C31.1068 15.0276 31.3316 14.8978 31.554 14.7613C31.6179 14.7223 31.6831 14.6851 31.7471 14.6449C32.0244 14.4675 32.2956 14.2805 32.5594 14.0836C32.6209 14.0379 32.68 13.9886 32.7411 13.941C32.9457 13.7832 33.1463 13.6193 33.3412 13.45C33.3814 13.4152 33.4253 13.3841 33.4648 13.3489C34.6897 14.944 35.4586 16.8263 35.7012 18.8163H30.0465ZM31.9708 11.7481C31.9367 11.7779 31.9026 11.8089 31.8684 11.8389C31.7502 11.94 31.6296 12.0381 31.5076 12.1351C31.4334 12.1935 31.3602 12.2533 31.2846 12.3099C31.1451 12.4148 31.0019 12.5141 30.8575 12.6128C30.7953 12.6549 30.735 12.6993 30.6723 12.7401C30.4639 12.8766 30.2513 13.0064 30.0343 13.1283C30.0038 13.1459 29.9715 13.1605 29.941 13.1776C29.7539 13.2805 29.5638 13.3786 29.3712 13.4706C29.353 13.4791 29.3347 13.4871 29.3164 13.4956C29.3054 13.45 29.2921 13.4109 29.2811 13.3658C29.1897 12.9971 29.094 12.6389 28.9904 12.3013C28.9831 12.2774 28.9745 12.2563 28.9673 12.2324C28.868 11.9144 28.7619 11.6146 28.6522 11.3246C28.6236 11.249 28.595 11.1734 28.5657 11.1003C28.4476 10.8042 28.3249 10.5208 28.1958 10.257C28.1775 10.2204 28.1587 10.1875 28.1403 10.1516C28.0229 9.9182 27.8997 9.69943 27.7736 9.49285C27.754 9.46058 27.7364 9.42159 27.7162 9.38987C29.2813 9.84756 30.7266 10.6452 31.9708 11.7481ZM21.3045 9.48987C21.1765 9.69894 21.0528 9.92007 20.9334 10.1565C20.9169 10.1899 20.8987 10.2204 20.8822 10.2546C20.7518 10.5202 20.6287 10.8055 20.5092 11.1034C20.4813 11.1741 20.4538 11.2466 20.4264 11.3197C20.3136 11.6152 20.2052 11.9218 20.104 12.2471C20.0985 12.2641 20.0924 12.28 20.0869 12.297C19.9822 12.6383 19.8853 13.0002 19.7926 13.3725C19.7822 13.4152 19.7695 13.4524 19.7591 13.4956C19.7408 13.4871 19.7225 13.4791 19.7042 13.4706C19.5141 13.3798 19.3265 13.2823 19.1412 13.1806C19.1083 13.1623 19.0736 13.1464 19.0407 13.1275C18.8243 13.0063 18.6123 12.8765 18.4039 12.7406C18.3405 12.6992 18.2802 12.6547 18.218 12.6121C18.0736 12.5139 17.931 12.414 17.7915 12.3092C17.7159 12.2531 17.6434 12.1941 17.5697 12.1355C17.4472 12.0387 17.3259 11.94 17.2071 11.8382C17.173 11.8089 17.1395 11.7779 17.1054 11.7481C18.3496 10.6452 19.7956 9.84694 21.3603 9.38931C21.341 9.42048 21.3239 9.45829 21.3045 9.48987ZM15.6115 13.3489C15.6504 13.3835 15.6931 13.4134 15.7327 13.4475C15.9283 13.6181 16.1293 13.7821 16.3341 13.9405C16.3956 13.988 16.4554 14.0379 16.5175 14.0842C16.7807 14.2804 17.0507 14.4669 17.3273 14.6436C17.3931 14.6856 17.4613 14.7234 17.5278 14.7643C17.7465 14.8989 17.9689 15.0275 18.1956 15.1494C18.2864 15.1981 18.3772 15.2463 18.4692 15.2926C18.705 15.4126 18.9432 15.5247 19.1858 15.6302C19.2351 15.6522 19.282 15.6784 19.332 15.699C19.3247 15.7459 19.3211 15.7947 19.3144 15.8416C19.2553 16.2506 19.2041 16.6661 19.1614 17.0878C19.156 17.1432 19.148 17.1962 19.1425 17.2517C19.0968 17.7306 19.0633 18.2174 19.0384 18.7098C19.0366 18.7458 19.0324 18.7805 19.0305 18.8165H13.3771C13.6189 16.825 14.3873 14.9429 15.6115 13.3489Z" fill="#03A9F4"/>
<path d="M35.3545 37.223H13.7238C13.1206 37.223 12.6318 37.7124 12.6318 38.315C12.6318 38.9182 13.1206 39.407 13.7238 39.407H35.3545C35.9578 39.407 36.4465 38.9182 36.4465 38.315C36.4465 37.7124 35.9578 37.223 35.3545 37.223Z" fill="#03A9F4"/>
<path d="M30.4384 42.5901H18.6393C18.0366 42.5901 17.5474 43.0794 17.5474 43.6819C17.5474 44.2853 18.0366 44.774 18.6393 44.774H30.4384C31.0417 44.774 31.5303 44.2853 31.5303 43.6819C31.5303 43.0794 31.0417 42.5901 30.4384 42.5901Z" fill="#03A9F4"/>
<path d="M1.62792 0.177979C1.02466 0.177979 0.536011 0.667321 0.536011 1.26996V48.7388C0.536011 49.3414 1.02466 49.8308 1.62792 49.8308C2.23057 49.8308 2.71984 49.3415 2.71984 48.7388V1.26996C2.71984 0.667321 2.23057 0.177979 1.62792 0.177979Z" fill="#03A9F4"/>
</svg>
