<svg width="55" height="55" viewBox="0 0 55 55" fill="none" xmlns="http://www.w3.org/2000/svg">
<g filter="url(#filter0_ii)">
<circle cx="27.5" cy="27.5" r="27.5" fill="#FF8C00"/>
</g>
<path d="M37.649 33.1752C38.1879 33.3825 38.3952 34.1898 38.4364 34.542C38.5195 35.1845 38.3334 35.433 38.1261 35.433C37.9188 35.433 37.6284 35.1845 37.3181 34.6875C37.0072 34.1898 36.8829 33.631 37.049 33.3406C37.152 33.1539 37.3793 33.0715 37.649 33.1752ZM34.5008 35.5161C34.8324 35.5161 35.2051 35.6609 35.5367 35.9507C36.1786 36.4895 36.3653 37.1108 36.0337 37.5666C35.847 37.7945 35.5367 37.9394 35.1845 37.9394C34.8324 37.9394 34.4596 37.8151 34.2111 37.5872C33.631 37.0902 33.4655 36.261 33.8377 35.8058C33.9832 35.6191 34.2111 35.5161 34.5008 35.5161ZM27.2515 41.5023C19.3795 41.5023 13 35.1221 13 27.2508C13 19.3795 19.3802 13 27.2508 13C35.1221 13 41.5023 19.3802 41.5023 27.2508C41.5023 29.9226 40.7567 32.4296 39.4936 34.5632C39.4517 34.625 39.3481 34.6044 39.3275 34.5214C38.8304 31.021 36.6968 29.094 33.5898 28.5146C33.32 28.4728 33.2788 28.3073 33.631 28.2661C34.5838 28.1831 35.9301 28.2037 36.6344 28.3279C36.6756 27.9757 36.6968 27.603 36.6968 27.2302C36.6968 22.0308 32.4708 17.8048 27.2714 17.8048C22.0726 17.8048 17.8466 22.0308 17.8466 27.2302C17.8466 32.4296 22.0726 36.6556 27.2721 36.6556H27.7066C27.559 35.8147 27.4964 34.9609 27.5199 34.1074C27.5412 33.5273 27.6654 33.4443 27.9139 33.9001C29.2189 36.158 31.0834 38.1879 34.7287 38.9959C37.7115 39.659 40.6943 40.4252 43.905 44.5057C44.1947 44.8578 43.7601 45.2306 43.4286 44.9409C40.156 42.0405 37.1733 41.0876 34.4596 41.0876C31.4144 41.1089 29.3438 41.5023 27.2515 41.5023Z" fill="white"/>
<defs>
<filter id="filter0_ii" x="0" y="0" width="55" height="55" filterUnits="userSpaceOnUse" color-interpolation-filters="sRGB">
<feFlood flood-opacity="0" result="BackgroundImageFix"/>
<feBlend mode="normal" in="SourceGraphic" in2="BackgroundImageFix" result="shape"/>
<feColorMatrix in="SourceAlpha" type="matrix" values="0 0 0 0 0 0 0 0 0 0 0 0 0 0 0 0 0 0 127 0" result="hardAlpha"/>
<feOffset dy="2"/>
<feComposite in2="hardAlpha" operator="arithmetic" k2="-1" k3="1"/>
<feColorMatrix type="matrix" values="0 0 0 0 1 0 0 0 0 1 0 0 0 0 1 0 0 0 0.1 0"/>
<feBlend mode="normal" in2="shape" result="effect1_innerShadow"/>
<feColorMatrix in="SourceAlpha" type="matrix" values="0 0 0 0 0 0 0 0 0 0 0 0 0 0 0 0 0 0 127 0" result="hardAlpha"/>
<feOffset dy="-2"/>
<feComposite in2="hardAlpha" operator="arithmetic" k2="-1" k3="1"/>
<feColorMatrix type="matrix" values="0 0 0 0 0 0 0 0 0 0 0 0 0 0 0 0 0 0 0.1 0"/>
<feBlend mode="normal" in2="effect1_innerShadow" result="effect2_innerShadow"/>
</filter>
</defs>
</svg>
