<svg width="14" height="15" viewBox="0 0 14 15" fill="none" xmlns="http://www.w3.org/2000/svg">
<path d="M2.21289 2.74414C3.56315 1.39388 5.1901 0.71875 7.09375 0.71875C8.9974 0.71875 10.6243 1.39388 11.9746 2.74414C13.3249 4.0944 14 5.72135 14 7.625C14 9.52865 13.3249 11.1556 11.9746 12.5059C10.6243 13.8561 8.9974 14.5312 7.09375 14.5312C5.1901 14.5312 3.56315 13.8561 2.21289 12.5059C0.86263 11.1556 0.1875 9.52865 0.1875 7.625C0.1875 5.72135 0.86263 4.0944 2.21289 2.74414ZM7.6582 8.18945V3.375H7.09375V7.625H3.90625V8.18945H7.6582Z" fill="#042433"/>
</svg>
